{
  "version": "2.0",
  "logging": {
    "applicationInsights": {
      "samplingSettings": {
        "isEnabled": true,
        "excludedTypes": "Request"
      }
    }
  },
  "extensionBundle": {
    "id": "Microsoft.Azure.Functions.ExtensionBundle",
    "version": "[3.*, 4.0.0)"
  },
  "customHandler": {
    "description": {
      "defaultExecutablePath": "target/release/handler",
      "workingDirectory": "",
      "arguments": []
    },
    "enableForwardingHttpRequest": true
  }
}
